{
  "filename": "rust-lib/target/debug/libgodot_rs.so",
  "classes": [
    {
      "name": "TestNode",
      "extends": "Node2D",
      "instance_function": "test_instance",
      "free_function": "",
      "functions": [
        {
          "godot_name": "_notification",
          "name": "test__notification"
        },
        {
          "godot_name": "test",
          "name": "test_test"
        }
      ]
    }
  ]
}
